Data wrangling
…
Prepare data

Preparing the data allows you to see duplicates, extra letters,
symbols and other attributes in data sets (dataframes) that may make it
hard to combine, read, or understand data.

#### Clean data
photographers <- clean_names(photographer_names)
photographers

## # A tibble: 87 × 9
##    site_number site_location original_photographer date_4  repeat_photographer
##          <dbl> <chr>         <chr>                 <chr>   <chr>              
##  1        1100 Welbedacht    Lambert               Unknown Jack               
##  2        1101 Welbedacht    Howes-Howell          11324   Jack               
##  3        1103 Welbedacht    Taylor                1986/7  Jack               
##  4        1104 Welbedacht    Taylor                1986/7  Jack               
##  5        1105 Welbedacht    Taylor                1986/7  Jack               
##  6        1107 Welbedacht    Taylor                1986/7  Jack               
##  7        1108 Welbedacht    Taylor                1986/7  Jack               
##  8        1111 Welbedacht    Howes-Howell          12724   Jack               
##  9        1113 Welbedacht    Manders               30195   Jack               
## 10        1114 Welbedacht    Howes-Howell          Unknown Jack               
## # … with 77 more rows, and 4 more variables: date_6 <dttm>, latitude <dbl>,
## #   longitude <dbl>, altitude_m <dbl>
…
