Data analysis
…
#### Selecting and filtering data
penguins_bill <- select (penguins, species, island, bill_length_mm, bill_depth_mm)
penguins_flipper <- select (penguins, species, island, flipper_length_mm)
penguins_bodymass <- select(penguins, -flipper_length_mm, -bill_length_mm, -bill_depth_mm)
penguins_09 <- filter(penguins, year == 2009)
penguins2 <- filter(penguins, year < 2008)

#### say for instance you want the penguin bill information for 2007 and 2008 only

##### option 1
penguins_bill2 <- select (penguins, species, island, bill_length_mm, bill_depth_mm, year)
penguins_bill2 <- filter(penguins_bill2, year < 2009)
penguins_bill2

## # A tibble: 224 × 5
##    species island    bill_length_mm bill_depth_mm  year
##    <fct>   <fct>              <dbl>         <dbl> <int>
##  1 Adelie  Torgersen           39.1          18.7  2007
##  2 Adelie  Torgersen           39.5          17.4  2007
##  3 Adelie  Torgersen           40.3          18    2007
##  4 Adelie  Torgersen           NA            NA    2007
##  5 Adelie  Torgersen           36.7          19.3  2007
##  6 Adelie  Torgersen           39.3          20.6  2007
##  7 Adelie  Torgersen           38.9          17.8  2007
##  8 Adelie  Torgersen           39.2          19.6  2007
##  9 Adelie  Torgersen           34.1          18.1  2007
## 10 Adelie  Torgersen           42            20.2  2007
## # … with 214 more rows

penguins_bill2 <- na.omit(penguins_bill2)
penguins_bill2

## # A tibble: 223 × 5
##    species island    bill_length_mm bill_depth_mm  year
##    <fct>   <fct>              <dbl>         <dbl> <int>
##  1 Adelie  Torgersen           39.1          18.7  2007
##  2 Adelie  Torgersen           39.5          17.4  2007
##  3 Adelie  Torgersen           40.3          18    2007
##  4 Adelie  Torgersen           36.7          19.3  2007
##  5 Adelie  Torgersen           39.3          20.6  2007
##  6 Adelie  Torgersen           38.9          17.8  2007
##  7 Adelie  Torgersen           39.2          19.6  2007
##  8 Adelie  Torgersen           34.1          18.1  2007
##  9 Adelie  Torgersen           42            20.2  2007
## 10 Adelie  Torgersen           37.8          17.1  2007
## # … with 213 more rows

##### option 2
penguins_bill2_2 <- select(filter(penguins, year < 2009), species, island, bill_length_mm, bill_depth_mm, year)
penguins_bill2_2 <- na.omit(penguins_bill2_2)
penguins_bill2_2

## # A tibble: 223 × 5
##    species island    bill_length_mm bill_depth_mm  year
##    <fct>   <fct>              <dbl>         <dbl> <int>
##  1 Adelie  Torgersen           39.1          18.7  2007
##  2 Adelie  Torgersen           39.5          17.4  2007
##  3 Adelie  Torgersen           40.3          18    2007
##  4 Adelie  Torgersen           36.7          19.3  2007
##  5 Adelie  Torgersen           39.3          20.6  2007
##  6 Adelie  Torgersen           38.9          17.8  2007
##  7 Adelie  Torgersen           39.2          19.6  2007
##  8 Adelie  Torgersen           34.1          18.1  2007
##  9 Adelie  Torgersen           42            20.2  2007
## 10 Adelie  Torgersen           37.8          17.1  2007
## # … with 213 more rows

##### option 3 
## you can use the pipe function
Penguins_bill<-penguins %>%
  filter(year < 2009) %>%
  select(species, island, bill_length_mm, bill_depth_mm, year) %>% 
  na.omit()
Penguins_bill

## # A tibble: 223 × 5
##    species island    bill_length_mm bill_depth_mm  year
##    <fct>   <fct>              <dbl>         <dbl> <int>
##  1 Adelie  Torgersen           39.1          18.7  2007
##  2 Adelie  Torgersen           39.5          17.4  2007
##  3 Adelie  Torgersen           40.3          18    2007
##  4 Adelie  Torgersen           36.7          19.3  2007
##  5 Adelie  Torgersen           39.3          20.6  2007
##  6 Adelie  Torgersen           38.9          17.8  2007
##  7 Adelie  Torgersen           39.2          19.6  2007
##  8 Adelie  Torgersen           34.1          18.1  2007
##  9 Adelie  Torgersen           42            20.2  2007
## 10 Adelie  Torgersen           37.8          17.1  2007
## # … with 213 more rows

##### mutate

Penguins_bill<-Penguins_bill %>% mutate(bill_length_m = bill_length_mm/1000) #added a new column with new units for bill_length
Penguins_bill

## # A tibble: 223 × 6
##    species island    bill_length_mm bill_depth_mm  year bill_length_m
##    <fct>   <fct>              <dbl>         <dbl> <int>         <dbl>
##  1 Adelie  Torgersen           39.1          18.7  2007        0.0391
##  2 Adelie  Torgersen           39.5          17.4  2007        0.0395
##  3 Adelie  Torgersen           40.3          18    2007        0.0403
##  4 Adelie  Torgersen           36.7          19.3  2007        0.0367
##  5 Adelie  Torgersen           39.3          20.6  2007        0.0393
##  6 Adelie  Torgersen           38.9          17.8  2007        0.0389
##  7 Adelie  Torgersen           39.2          19.6  2007        0.0392
##  8 Adelie  Torgersen           34.1          18.1  2007        0.0341
##  9 Adelie  Torgersen           42            20.2  2007        0.042 
## 10 Adelie  Torgersen           37.8          17.1  2007        0.0378
## # … with 213 more rows
…
